{
    "paypal" : {
        "id" : "payment-method-paypal",
        "value" : "paypal"
    },
    "rechnung" : {
        "id" : "payment-method-ratepay_invoice",
        "value" : "ratepay_invoice"
    },
    "visa" : {
        "id" : "payment-method-computop_creditcard_visa",
        "value" : "computop_creditcard_visa"
    },
    "master_card" : {
        "id" : "payment-method-computop_creditcard_mastercard",
        "value" : "computop_creditcard_mastercard"
    },
    "paydirekt" : {
        "id" : "payment-method-computop_paydirekt",
        "value" : "computop_paydirekt"
    },
    "discover" : {
        "id" : "payment-method-computop_creditcard_discover",
        "value" : "computop_creditcard_discover"
    },
    "dinners" : {
        "id" : "payment-method-computop_creditcard_dinersclub",
        "value" : "computop_creditcard_dinersclub"
    },
    "sepa" : {
        "id" : "payment-method-ratepay_directdebit",
        "value" : "ratepay_directdebit"
    }
}